^C:\USERS\JTWMJTRG\DESKTOP\2018SUMMER\JI-ZHONG-ZHI-ZUO-HUI-2018XIA\集中制作会2018夏\集中制作会2018夏\X64\DEBUG\KEYBOARD.OBJ|C:\USERS\JTWMJTRG\DESKTOP\2018SUMMER\JI-ZHONG-ZHI-ZUO-HUI-2018XIA\集中制作会2018夏\集中制作会2018夏\X64\DEBUG\MAIN.OBJ
C:\WINDOWS\GLOBALIZATION\SORTING\SORTDEFAULT.NLS
C:\PROGRAM FILES (X86)\WINDOWS KITS\8.1\LIB\WINV6.3\UM\X64\KERNEL32.LIB
C:\PROGRAM FILES (X86)\WINDOWS KITS\8.1\LIB\WINV6.3\UM\X64\USER32.LIB
C:\PROGRAM FILES (X86)\WINDOWS KITS\8.1\LIB\WINV6.3\UM\X64\GDI32.LIB
C:\PROGRAM FILES (X86)\WINDOWS KITS\8.1\LIB\WINV6.3\UM\X64\WINSPOOL.LIB
C:\PROGRAM FILES (X86)\WINDOWS KITS\8.1\LIB\WINV6.3\UM\X64\COMDLG32.LIB
C:\PROGRAM FILES (X86)\WINDOWS KITS\8.1\LIB\WINV6.3\UM\X64\ADVAPI32.LIB
C:\PROGRAM FILES (X86)\WINDOWS KITS\8.1\LIB\WINV6.3\UM\X64\SHELL32.LIB
C:\PROGRAM FILES (X86)\WINDOWS KITS\8.1\LIB\WINV6.3\UM\X64\OLE32.LIB
C:\PROGRAM FILES (X86)\WINDOWS KITS\8.1\LIB\WINV6.3\UM\X64\OLEAUT32.LIB
C:\PROGRAM FILES (X86)\WINDOWS KITS\8.1\LIB\WINV6.3\UM\X64\UUID.LIB
C:\PROGRAM FILES (X86)\WINDOWS KITS\8.1\LIB\WINV6.3\UM\X64\ODBC32.LIB
C:\PROGRAM FILES (X86)\WINDOWS KITS\8.1\LIB\WINV6.3\UM\X64\ODBCCP32.LIB
C:\USERS\JTWMJTRG\DESKTOP\2018SUMMER\JI-ZHONG-ZHI-ZUO-HUI-2018XIA\集中制作会2018夏\集中制作会2018夏\X64\DEBUG\KEYBOARD.OBJ
C:\USERS\JTWMJTRG\DESKTOP\2018SUMMER\JI-ZHONG-ZHI-ZUO-HUI-2018XIA\集中制作会2018夏\集中制作会2018夏\X64\DEBUG\MAIN.OBJ
C:\DXLIB_VC\プロジェクトに追加すべきファイル_VC用\DXDRAWFUNC_VS2015_X64_D.LIB
C:\DXLIB_VC\プロジェクトに追加すべきファイル_VC用\DXLIB_VS2015_X64_D.LIB
C:\DXLIB_VC\プロジェクトに追加すべきファイル_VC用\DXUSECLIB_VS2015_X64_D.LIB
C:\DXLIB_VC\プロジェクトに追加すべきファイル_VC用\LIBBULLETCOLLISION_VS2015_X64_D.LIB
C:\DXLIB_VC\プロジェクトに追加すべきファイル_VC用\LIBBULLETDYNAMICS_VS2015_X64_D.LIB
C:\DXLIB_VC\プロジェクトに追加すべきファイル_VC用\LIBBULLETMATH_VS2015_X64_D.LIB
C:\DXLIB_VC\プロジェクトに追加すべきファイル_VC用\LIBTIFF_VS2015_X64_D.LIB
C:\DXLIB_VC\プロジェクトに追加すべきファイル_VC用\LIBPNG_VS2015_X64_D.LIB
C:\DXLIB_VC\プロジェクトに追加すべきファイル_VC用\ZLIB_VS2015_X64_D.LIB
C:\DXLIB_VC\プロジェクトに追加すべきファイル_VC用\LIBJPEG_VS2015_X64_D.LIB
C:\DXLIB_VC\プロジェクトに追加すべきファイル_VC用\OGG_STATIC_VS2015_X64_D.LIB
C:\DXLIB_VC\プロジェクトに追加すべきファイル_VC用\VORBIS_STATIC_VS2015_X64_D.LIB
C:\DXLIB_VC\プロジェクトに追加すべきファイル_VC用\VORBISFILE_STATIC_VS2015_X64_D.LIB
C:\DXLIB_VC\プロジェクトに追加すべきファイル_VC用\LIBTHEORA_STATIC_VS2015_X64_D.LIB
C:\DXLIB_VC\プロジェクトに追加すべきファイル_VC用\OPUS_VS2015_X64_D.LIB
C:\DXLIB_VC\プロジェクトに追加すべきファイル_VC用\OPUSFILE_VS2015_X64_D.LIB
C:\DXLIB_VC\プロジェクトに追加すべきファイル_VC用\SILK_COMMON_VS2015_X64_D.LIB
C:\DXLIB_VC\プロジェクトに追加すべきファイル_VC用\CELT_VS2015_X64_D.LIB
C:\PROGRAM FILES (X86)\MICROSOFT VISUAL STUDIO 14.0\VC\LIB\AMD64\LIBCMTD.LIB
C:\PROGRAM FILES (X86)\MICROSOFT VISUAL STUDIO 14.0\VC\LIB\AMD64\OLDNAMES.LIB
C:\PROGRAM FILES (X86)\MICROSOFT VISUAL STUDIO 14.0\VC\LIB\AMD64\LIBCPMTD.LIB
C:\PROGRAM FILES (X86)\MICROSOFT VISUAL STUDIO 14.0\VC\LIB\AMD64\LIBVCRUNTIMED.LIB
C:\PROGRAM FILES (X86)\WINDOWS KITS\10\LIB\10.0.10240.0\UCRT\X64\LIBUCRTD.LIB
C:\WINDOWS\SYSTEM32\TZRES.DLL
C:\PROGRAM FILES (X86)\MICROSOFT VISUAL STUDIO 14.0\VC\BIN\X86_AMD64\1041\LINKUI.DLL
C:\PROGRAM FILES (X86)\WINDOWS KITS\8.1\BIN\X86\RC.EXE
C:\PROGRAM FILES (X86)\MICROSOFT VISUAL STUDIO 14.0\VC\BIN\CVTRES.EXE
