^D:\TUISUSER\DOCUMENTS\部活\プログラム\テンプレート＿ゲーム\テンプレート＿ゲーム\KEYBOARD.CPP
/c /I"C:\DXLIB_VC\プロジェクトに追加すべきファイル_VC用" /ZI /nologo /W3 /WX- /diagnostics:classic /Od /Oy- /D WIN32 /D _DEBUG /D _WINDOWS /D _MBCS /Gm- /EHsc /RTC1 /MTd /GS /fp:precise /permissive- /Zc:wchar_t /Zc:forScope /Zc:inline /Fo"DEBUG\\" /Fd"DEBUG\VC141.PDB" /Gd /TP /analyze- /FC D:\TUISUSER\DOCUMENTS\部活\プログラム\テンプレート＿ゲーム\テンプレート＿ゲーム\KEYBOARD.CPP
^D:\TUISUSER\DOCUMENTS\部活\プログラム\テンプレート＿ゲーム\テンプレート＿ゲーム\MAIN.CPP
/c /I"C:\DXLIB_VC\プロジェクトに追加すべきファイル_VC用" /ZI /nologo /W3 /WX- /diagnostics:classic /Od /Oy- /D WIN32 /D _DEBUG /D _WINDOWS /D _MBCS /Gm- /EHsc /RTC1 /MTd /GS /fp:precise /permissive- /Zc:wchar_t /Zc:forScope /Zc:inline /Fo"DEBUG\\" /Fd"DEBUG\VC141.PDB" /Gd /TP /analyze- /FC D:\TUISUSER\DOCUMENTS\部活\プログラム\テンプレート＿ゲーム\テンプレート＿ゲーム\MAIN.CPP
^C:\USERS\TUISUSER\DOCUMENTS\JI-ZHONG-ZHI-ZUO-HUI-2018XIA\集中制作会2018夏\集中制作会2018夏\BACE_SCENE.CPP
/c /I"C:\DXLIB_VC\プロジェクトに追加すべきファイル_VC用" /ZI /nologo /W3 /WX- /diagnostics:classic /Od /Oy- /D WIN32 /D _DEBUG /D _WINDOWS /D _MBCS /Gm- /EHsc /RTC1 /MTd /GS /fp:precise /permissive- /Zc:wchar_t /Zc:forScope /Zc:inline /Fo"DEBUG\\" /Fd"DEBUG\VC141.PDB" /Gd /TP /analyze- /FC C:\USERS\TUISUSER\DOCUMENTS\JI-ZHONG-ZHI-ZUO-HUI-2018XIA\集中制作会2018夏\集中制作会2018夏\BACE_SCENE.CPP
^C:\USERS\TUISUSER\DOCUMENTS\JI-ZHONG-ZHI-ZUO-HUI-2018XIA\集中制作会2018夏\集中制作会2018夏\POINT.CPP
/c /I"C:\DXLIB_VC\プロジェクトに追加すべきファイル_VC用" /ZI /nologo /W3 /WX- /diagnostics:classic /Od /Oy- /D WIN32 /D _DEBUG /D _WINDOWS /D _MBCS /Gm- /EHsc /RTC1 /MTd /GS /fp:precise /permissive- /Zc:wchar_t /Zc:forScope /Zc:inline /Fo"DEBUG\\" /Fd"DEBUG\VC141.PDB" /Gd /TP /analyze- /FC C:\USERS\TUISUSER\DOCUMENTS\JI-ZHONG-ZHI-ZUO-HUI-2018XIA\集中制作会2018夏\集中制作会2018夏\POINT.CPP
^C:\USERS\TUISUSER\DOCUMENTS\JI-ZHONG-ZHI-ZUO-HUI-2018XIA\集中制作会2018夏\集中制作会2018夏\SIZE.CPP
/c /I"C:\DXLIB_VC\プロジェクトに追加すべきファイル_VC用" /ZI /nologo /W3 /WX- /diagnostics:classic /Od /Oy- /D WIN32 /D _DEBUG /D _WINDOWS /D _MBCS /Gm- /EHsc /RTC1 /MTd /GS /fp:precise /permissive- /Zc:wchar_t /Zc:forScope /Zc:inline /Fo"DEBUG\\" /Fd"DEBUG\VC141.PDB" /Gd /TP /analyze- /FC C:\USERS\TUISUSER\DOCUMENTS\JI-ZHONG-ZHI-ZUO-HUI-2018XIA\集中制作会2018夏\集中制作会2018夏\SIZE.CPP
^C:\USERS\TUISUSER\DOCUMENTS\JI-ZHONG-ZHI-ZUO-HUI-2018XIA\集中制作会2018夏\集中制作会2018夏\BASE_CHARACTER.CPP
/c /I"C:\DXLIB_VC\プロジェクトに追加すべきファイル_VC用" /ZI /nologo /W3 /WX- /diagnostics:classic /Od /Oy- /D WIN32 /D _DEBUG /D _WINDOWS /D _MBCS /Gm- /EHsc /RTC1 /MTd /GS /fp:precise /permissive- /Zc:wchar_t /Zc:forScope /Zc:inline /Fo"DEBUG\\" /Fd"DEBUG\VC141.PDB" /Gd /TP /analyze- /FC C:\USERS\TUISUSER\DOCUMENTS\JI-ZHONG-ZHI-ZUO-HUI-2018XIA\集中制作会2018夏\集中制作会2018夏\BASE_CHARACTER.CPP
^C:\USERS\TUISUSER\DOCUMENTS\JI-ZHONG-ZHI-ZUO-HUI-2018XIA\集中制作会2018夏\集中制作会2018夏\BASE_SCENE.CPP
/c /I"C:\DXLIB_VC\プロジェクトに追加すべきファイル_VC用" /ZI /nologo /W3 /WX- /diagnostics:classic /Od /Oy- /D WIN32 /D _DEBUG /D _WINDOWS /D _MBCS /Gm- /EHsc /RTC1 /MTd /GS /fp:precise /permissive- /Zc:wchar_t /Zc:forScope /Zc:inline /Fo"DEBUG\\" /Fd"DEBUG\VC141.PDB" /Gd /TP /analyze- /FC C:\USERS\TUISUSER\DOCUMENTS\JI-ZHONG-ZHI-ZUO-HUI-2018XIA\集中制作会2018夏\集中制作会2018夏\BASE_SCENE.CPP
^C:\USERS\TUISUSER\DOCUMENTS\JI-ZHONG-ZHI-ZUO-HUI-2018XIA\集中制作会2018夏\集中制作会2018夏\KEYBOARD.CPP
/c /I"C:\DXLIB_VC\プロジェクトに追加すべきファイル_VC用" /ZI /nologo /W3 /WX- /diagnostics:classic /Od /Oy- /D WIN32 /D _DEBUG /D _WINDOWS /D _MBCS /Gm- /EHsc /RTC1 /MTd /GS /fp:precise /permissive- /Zc:wchar_t /Zc:forScope /Zc:inline /Fo"DEBUG\\" /Fd"DEBUG\VC141.PDB" /Gd /TP /analyze- /FC C:\USERS\TUISUSER\DOCUMENTS\JI-ZHONG-ZHI-ZUO-HUI-2018XIA\集中制作会2018夏\集中制作会2018夏\KEYBOARD.CPP
^C:\USERS\TUISUSER\DOCUMENTS\JI-ZHONG-ZHI-ZUO-HUI-2018XIA\集中制作会2018夏\集中制作会2018夏\MAP.CPP
/c /I"C:\DXLIB_VC\プロジェクトに追加すべきファイル_VC用" /ZI /nologo /W3 /WX- /diagnostics:classic /Od /Oy- /D WIN32 /D _DEBUG /D _WINDOWS /D _MBCS /Gm- /EHsc /RTC1 /MTd /GS /fp:precise /permissive- /Zc:wchar_t /Zc:forScope /Zc:inline /Fo"DEBUG\\" /Fd"DEBUG\VC141.PDB" /Gd /TP /analyze- /FC C:\USERS\TUISUSER\DOCUMENTS\JI-ZHONG-ZHI-ZUO-HUI-2018XIA\集中制作会2018夏\集中制作会2018夏\MAP.CPP
^C:\USERS\TUISUSER\DOCUMENTS\JI-ZHONG-ZHI-ZUO-HUI-2018XIA\集中制作会2018夏\集中制作会2018夏\PLAYER.CPP
/c /I"C:\DXLIB_VC\プロジェクトに追加すべきファイル_VC用" /ZI /nologo /W3 /WX- /diagnostics:classic /Od /Oy- /D WIN32 /D _DEBUG /D _WINDOWS /D _MBCS /Gm- /EHsc /RTC1 /MTd /GS /fp:precise /permissive- /Zc:wchar_t /Zc:forScope /Zc:inline /Fo"DEBUG\\" /Fd"DEBUG\VC141.PDB" /Gd /TP /analyze- /FC C:\USERS\TUISUSER\DOCUMENTS\JI-ZHONG-ZHI-ZUO-HUI-2018XIA\集中制作会2018夏\集中制作会2018夏\PLAYER.CPP
^C:\USERS\TUISUSER\DOCUMENTS\JI-ZHONG-ZHI-ZUO-HUI-2018XIA\集中制作会2018夏\集中制作会2018夏\SCENE_RESULT.CPP
/c /I"C:\DXLIB_VC\プロジェクトに追加すべきファイル_VC用" /ZI /nologo /W3 /WX- /diagnostics:classic /Od /Oy- /D WIN32 /D _DEBUG /D _WINDOWS /D _MBCS /Gm- /EHsc /RTC1 /MTd /GS /fp:precise /permissive- /Zc:wchar_t /Zc:forScope /Zc:inline /Fo"DEBUG\\" /Fd"DEBUG\VC141.PDB" /Gd /TP /analyze- /FC C:\USERS\TUISUSER\DOCUMENTS\JI-ZHONG-ZHI-ZUO-HUI-2018XIA\集中制作会2018夏\集中制作会2018夏\SCENE_RESULT.CPP
^C:\USERS\TUISUSER\DOCUMENTS\JI-ZHONG-ZHI-ZUO-HUI-2018XIA\集中制作会2018夏\集中制作会2018夏\SCENE_TITLE.CPP
/c /I"C:\DXLIB_VC\プロジェクトに追加すべきファイル_VC用" /ZI /nologo /W3 /WX- /diagnostics:classic /Od /Oy- /D WIN32 /D _DEBUG /D _WINDOWS /D _MBCS /Gm- /EHsc /RTC1 /MTd /GS /fp:precise /permissive- /Zc:wchar_t /Zc:forScope /Zc:inline /Fo"DEBUG\\" /Fd"DEBUG\VC141.PDB" /Gd /TP /analyze- /FC C:\USERS\TUISUSER\DOCUMENTS\JI-ZHONG-ZHI-ZUO-HUI-2018XIA\集中制作会2018夏\集中制作会2018夏\SCENE_TITLE.CPP
^C:\USERS\TUISUSER\DOCUMENTS\JI-ZHONG-ZHI-ZUO-HUI-2018XIA\集中制作会2018夏\集中制作会2018夏\SCENEMGR.CPP
/c /I"C:\DXLIB_VC\プロジェクトに追加すべきファイル_VC用" /ZI /nologo /W3 /WX- /diagnostics:classic /Od /Oy- /D WIN32 /D _DEBUG /D _WINDOWS /D _MBCS /Gm- /EHsc /RTC1 /MTd /GS /fp:precise /permissive- /Zc:wchar_t /Zc:forScope /Zc:inline /Fo"DEBUG\\" /Fd"DEBUG\VC141.PDB" /Gd /TP /analyze- /FC C:\USERS\TUISUSER\DOCUMENTS\JI-ZHONG-ZHI-ZUO-HUI-2018XIA\集中制作会2018夏\集中制作会2018夏\SCENEMGR.CPP
^C:\USERS\TUISUSER\DOCUMENTS\JI-ZHONG-ZHI-ZUO-HUI-2018XIA\集中制作会2018夏\集中制作会2018夏\MAIN.CPP
/c /I"C:\DXLIB_VC\プロジェクトに追加すべきファイル_VC用" /ZI /nologo /W3 /WX- /diagnostics:classic /Od /Oy- /D WIN32 /D _DEBUG /D _WINDOWS /D _MBCS /Gm- /EHsc /RTC1 /MTd /GS /fp:precise /permissive- /Zc:wchar_t /Zc:forScope /Zc:inline /Fo"DEBUG\\" /Fd"DEBUG\VC141.PDB" /Gd /TP /analyze- /FC C:\USERS\TUISUSER\DOCUMENTS\JI-ZHONG-ZHI-ZUO-HUI-2018XIA\集中制作会2018夏\集中制作会2018夏\MAIN.CPP
^C:\USERS\TUISUSER\DOCUMENTS\JI-ZHONG-ZHI-ZUO-HUI-2018XIA\集中制作会2018夏\集中制作会2018夏\PLAYERMGR.CPP
/c /I"C:\DXLIB_VC\プロジェクトに追加すべきファイル_VC用" /ZI /nologo /W3 /WX- /diagnostics:classic /Od /Oy- /D WIN32 /D _DEBUG /D _WINDOWS /D _MBCS /Gm- /EHsc /RTC1 /MTd /GS /fp:precise /permissive- /Zc:wchar_t /Zc:forScope /Zc:inline /Fo"DEBUG\\" /Fd"DEBUG\VC141.PDB" /Gd /TP /analyze- /FC C:\USERS\TUISUSER\DOCUMENTS\JI-ZHONG-ZHI-ZUO-HUI-2018XIA\集中制作会2018夏\集中制作会2018夏\PLAYERMGR.CPP
^C:\USERS\TUISUSER\DOCUMENTS\JI-ZHONG-ZHI-ZUO-HUI-2018XIA\集中制作会2018夏\集中制作会2018夏\SCENE_GAME.CPP
/c /I"C:\DXLIB_VC\プロジェクトに追加すべきファイル_VC用" /ZI /nologo /W3 /WX- /diagnostics:classic /Od /Oy- /D WIN32 /D _DEBUG /D _WINDOWS /D _MBCS /Gm- /EHsc /RTC1 /MTd /GS /fp:precise /permissive- /Zc:wchar_t /Zc:forScope /Zc:inline /Fo"DEBUG\\" /Fd"DEBUG\VC141.PDB" /Gd /TP /analyze- /FC C:\USERS\TUISUSER\DOCUMENTS\JI-ZHONG-ZHI-ZUO-HUI-2018XIA\集中制作会2018夏\集中制作会2018夏\SCENE_GAME.CPP
